simulation/qsim/relogioDespertador.msim.vcd
$comment
	File created using the following command:
		vcd file relogioDespertador.msim.vcd -direction
$end
$date
	Wed Oct 30 18:33:31 2019
$end
$version
	ModelSim Version 10.5b
$end
$timescale
	1ps
$end

$scope module relogiodespertador_vhd_vec_tst $end
$var wire 1 ! CLK $end
$var wire 1 " hora0 [6] $end
$var wire 1 # hora0 [5] $end
$var wire 1 $ hora0 [4] $end
$var wire 1 % hora0 [3] $end
$var wire 1 & hora0 [2] $end
$var wire 1 ' hora0 [1] $end
$var wire 1 ( hora0 [0] $end
$var wire 1 ) hora1 [6] $end
$var wire 1 * hora1 [5] $end
$var wire 1 + hora1 [4] $end
$var wire 1 , hora1 [3] $end
$var wire 1 - hora1 [2] $end
$var wire 1 . hora1 [1] $end
$var wire 1 / hora1 [0] $end
$var wire 1 0 load $end
$var wire 1 1 min0 [6] $end
$var wire 1 2 min0 [5] $end
$var wire 1 3 min0 [4] $end
$var wire 1 4 min0 [3] $end
$var wire 1 5 min0 [2] $end
$var wire 1 6 min0 [1] $end
$var wire 1 7 min0 [0] $end
$var wire 1 8 min1 [6] $end
$var wire 1 9 min1 [5] $end
$var wire 1 : min1 [4] $end
$var wire 1 ; min1 [3] $end
$var wire 1 < min1 [2] $end
$var wire 1 = min1 [1] $end
$var wire 1 > min1 [0] $end
$var wire 1 ? selecao [1] $end
$var wire 1 @ selecao [0] $end
$var wire 1 A teclado [9] $end
$var wire 1 B teclado [8] $end
$var wire 1 C teclado [7] $end
$var wire 1 D teclado [6] $end
$var wire 1 E teclado [5] $end
$var wire 1 F teclado [4] $end
$var wire 1 G teclado [3] $end
$var wire 1 H teclado [2] $end
$var wire 1 I teclado [1] $end
$var wire 1 J teclado [0] $end

$scope module i1 $end
$var wire 1 K gnd $end
$var wire 1 L vcc $end
$var wire 1 M unknown $end
$var wire 1 N devoe $end
$var wire 1 O devclrn $end
$var wire 1 P devpor $end
$var wire 1 Q ww_devoe $end
$var wire 1 R ww_devclrn $end
$var wire 1 S ww_devpor $end
$var wire 1 T ww_teclado [9] $end
$var wire 1 U ww_teclado [8] $end
$var wire 1 V ww_teclado [7] $end
$var wire 1 W ww_teclado [6] $end
$var wire 1 X ww_teclado [5] $end
$var wire 1 Y ww_teclado [4] $end
$var wire 1 Z ww_teclado [3] $end
$var wire 1 [ ww_teclado [2] $end
$var wire 1 \ ww_teclado [1] $end
$var wire 1 ] ww_teclado [0] $end
$var wire 1 ^ ww_selecao [1] $end
$var wire 1 _ ww_selecao [0] $end
$var wire 1 ` ww_CLK $end
$var wire 1 a ww_load $end
$var wire 1 b ww_hora1 [6] $end
$var wire 1 c ww_hora1 [5] $end
$var wire 1 d ww_hora1 [4] $end
$var wire 1 e ww_hora1 [3] $end
$var wire 1 f ww_hora1 [2] $end
$var wire 1 g ww_hora1 [1] $end
$var wire 1 h ww_hora1 [0] $end
$var wire 1 i ww_hora0 [6] $end
$var wire 1 j ww_hora0 [5] $end
$var wire 1 k ww_hora0 [4] $end
$var wire 1 l ww_hora0 [3] $end
$var wire 1 m ww_hora0 [2] $end
$var wire 1 n ww_hora0 [1] $end
$var wire 1 o ww_hora0 [0] $end
$var wire 1 p ww_min1 [6] $end
$var wire 1 q ww_min1 [5] $end
$var wire 1 r ww_min1 [4] $end
$var wire 1 s ww_min1 [3] $end
$var wire 1 t ww_min1 [2] $end
$var wire 1 u ww_min1 [1] $end
$var wire 1 v ww_min1 [0] $end
$var wire 1 w ww_min0 [6] $end
$var wire 1 x ww_min0 [5] $end
$var wire 1 y ww_min0 [4] $end
$var wire 1 z ww_min0 [3] $end
$var wire 1 { ww_min0 [2] $end
$var wire 1 | ww_min0 [1] $end
$var wire 1 } ww_min0 [0] $end
$var wire 1 ~ \teclado[0]~input_o\ $end
$var wire 1 !! \~QUARTUS_CREATED_GND~I_combout\ $end
$var wire 1 "! \CLK~input_o\ $end
$var wire 1 #! \CLK~inputCLKENA0_outclk\ $end
$var wire 1 $! \teclado[9]~input_o\ $end
$var wire 1 %! \selecao[1]~input_o\ $end
$var wire 1 &! \load~input_o\ $end
$var wire 1 '! \selecao[0]~input_o\ $end
$var wire 1 (! \teclado[8]~input_o\ $end
$var wire 1 )! \demux|s1[0]~0_combout\ $end
$var wire 1 *! \teclado[6]~input_o\ $end
$var wire 1 +! \teclado[7]~input_o\ $end
$var wire 1 ,! \teclado[4]~input_o\ $end
$var wire 1 -! \teclado[5]~input_o\ $end
$var wire 1 .! \teclado[3]~input_o\ $end
$var wire 1 /! \teclado[1]~input_o\ $end
$var wire 1 0! \demux|s1[0]~1_combout\ $end
$var wire 1 1! \conth1|q[0]~_wirecell_combout\ $end
$var wire 1 2! \teclado[2]~input_o\ $end
$var wire 1 3! \conth0|q[2]~2_combout\ $end
$var wire 1 4! \conth1|q~1_combout\ $end
$var wire 1 5! \contm1|q[3]~1_combout\ $end
$var wire 1 6! \demux|s4[3]~0_combout\ $end
$var wire 1 7! \contm0|q[0]~_wirecell_combout\ $end
$var wire 1 8! \contm1|q[2]~3_combout\ $end
$var wire 1 9! \contm1|q[0]~8_combout\ $end
$var wire 1 :! \control|cln[1]~1_combout\ $end
$var wire 1 ;! \contm1|q[1]~4_combout\ $end
$var wire 1 <! \contm1|q[1]~5_combout\ $end
$var wire 1 =! \contm1|q[2]~6_combout\ $end
$var wire 1 >! \contm1|q[2]~7_combout\ $end
$var wire 1 ?! \display2|d~1_combout\ $end
$var wire 1 @! \control|cln[0]~2_combout\ $end
$var wire 1 A! \contm0|q~1_combout\ $end
$var wire 1 B! \contm0|q~2_combout\ $end
$var wire 1 C! \contm0|Add0~0_combout\ $end
$var wire 1 D! \contm0|q~0_combout\ $end
$var wire 1 E! \control|enable[1]~2_combout\ $end
$var wire 1 F! \contm1|q[3]~0_combout\ $end
$var wire 1 G! \contm1|q[3]~2_combout\ $end
$var wire 1 H! \control|process_0~1_combout\ $end
$var wire 1 I! \control|process_0~4_combout\ $end
$var wire 1 J! \conth0|q[2]~4_combout\ $end
$var wire 1 K! \conth0|q[2]~5_combout\ $end
$var wire 1 L! \control|cln[2]~0_combout\ $end
$var wire 1 M! \conth0|q[3]~7_combout\ $end
$var wire 1 N! \conth0|q[3]~0_combout\ $end
$var wire 1 O! \conth0|q[3]~1_combout\ $end
$var wire 1 P! \control|Equal4~0_combout\ $end
$var wire 1 Q! \control|process_0~0_combout\ $end
$var wire 1 R! \control|enable[2]~1_combout\ $end
$var wire 1 S! \conth0|q[0]~6_combout\ $end
$var wire 1 T! \conth0|q[1]~3_combout\ $end
$var wire 1 U! \control|process_0~2_combout\ $end
$var wire 1 V! \control|process_0~3_combout\ $end
$var wire 1 W! \conth1|q~2_combout\ $end
$var wire 1 X! \conth1|Add0~0_combout\ $end
$var wire 1 Y! \conth1|q~0_combout\ $end
$var wire 1 Z! \display4|a~combout\ $end
$var wire 1 [! \display4|b~combout\ $end
$var wire 1 \! \display4|d~0_combout\ $end
$var wire 1 ]! \display4|e~0_combout\ $end
$var wire 1 ^! \display4|f~0_combout\ $end
$var wire 1 _! \display4|g~0_combout\ $end
$var wire 1 `! \display3|a~combout\ $end
$var wire 1 a! \display3|b~combout\ $end
$var wire 1 b! \display3|c~combout\ $end
$var wire 1 c! \display3|d~0_combout\ $end
$var wire 1 d! \display3|e~0_combout\ $end
$var wire 1 e! \display3|f~0_combout\ $end
$var wire 1 f! \display3|g~0_combout\ $end
$var wire 1 g! \display2|a~combout\ $end
$var wire 1 h! \display2|b~combout\ $end
$var wire 1 i! \display2|c~combout\ $end
$var wire 1 j! \display2|d~0_combout\ $end
$var wire 1 k! \display2|e~0_combout\ $end
$var wire 1 l! \display2|f~0_combout\ $end
$var wire 1 m! \display2|g~0_combout\ $end
$var wire 1 n! \display1|a~combout\ $end
$var wire 1 o! \display1|b~combout\ $end
$var wire 1 p! \control|enable[1]~0_combout\ $end
$var wire 1 q! \display1|d~0_combout\ $end
$var wire 1 r! \display1|e~0_combout\ $end
$var wire 1 s! \display1|f~0_combout\ $end
$var wire 1 t! \display1|g~0_combout\ $end
$var wire 1 u! \cod|s\ [3] $end
$var wire 1 v! \cod|s\ [2] $end
$var wire 1 w! \cod|s\ [1] $end
$var wire 1 x! \cod|s\ [0] $end
$var wire 1 y! \contm1|q\ [3] $end
$var wire 1 z! \contm1|q\ [2] $end
$var wire 1 {! \contm1|q\ [1] $end
$var wire 1 |! \contm1|q\ [0] $end
$var wire 1 }! \demux|s4\ [3] $end
$var wire 1 ~! \demux|s4\ [2] $end
$var wire 1 !" \demux|s4\ [1] $end
$var wire 1 "" \demux|s4\ [0] $end
$var wire 1 #" \conth0|q\ [3] $end
$var wire 1 $" \conth0|q\ [2] $end
$var wire 1 %" \conth0|q\ [1] $end
$var wire 1 &" \conth0|q\ [0] $end
$var wire 1 '" \contm0|q\ [3] $end
$var wire 1 (" \contm0|q\ [2] $end
$var wire 1 )" \contm0|q\ [1] $end
$var wire 1 *" \contm0|q\ [0] $end
$var wire 1 +" \conth1|q\ [3] $end
$var wire 1 ," \conth1|q\ [2] $end
$var wire 1 -" \conth1|q\ [1] $end
$var wire 1 ." \conth1|q\ [0] $end
$var wire 1 /" \contm1|ALT_INV_q[2]~3_combout\ $end
$var wire 1 0" \control|ALT_INV_cln[1]~1_combout\ $end
$var wire 1 1" \contm1|ALT_INV_q[3]~1_combout\ $end
$var wire 1 2" \contm1|ALT_INV_q[3]~0_combout\ $end
$var wire 1 3" \control|ALT_INV_enable[1]~2_combout\ $end
$var wire 1 4" \conth0|ALT_INV_q[2]~4_combout\ $end
$var wire 1 5" \conth0|ALT_INV_q[2]~2_combout\ $end
$var wire 1 6" \control|ALT_INV_enable[2]~1_combout\ $end
$var wire 1 7" \control|ALT_INV_cln[2]~0_combout\ $end
$var wire 1 8" \conth0|ALT_INV_q[3]~0_combout\ $end
$var wire 1 9" \control|ALT_INV_process_0~4_combout\ $end
$var wire 1 :" \cod|ALT_INV_s\ [2] $end
$var wire 1 ;" \cod|ALT_INV_s\ [1] $end
$var wire 1 <" \cod|ALT_INV_s\ [0] $end
$var wire 1 =" \demux|ALT_INV_s1[0]~0_combout\ $end
$var wire 1 >" \control|ALT_INV_Equal4~0_combout\ $end
$var wire 1 ?" \control|ALT_INV_process_0~3_combout\ $end
$var wire 1 @" \control|ALT_INV_process_0~2_combout\ $end
$var wire 1 A" \control|ALT_INV_process_0~1_combout\ $end
$var wire 1 B" \display2|ALT_INV_d~1_combout\ $end
$var wire 1 C" \conth1|ALT_INV_Add0~0_combout\ $end
$var wire 1 D" \control|ALT_INV_enable[1]~0_combout\ $end
$var wire 1 E" \contm0|ALT_INV_q\ [3] $end
$var wire 1 F" \contm0|ALT_INV_q\ [2] $end
$var wire 1 G" \contm0|ALT_INV_q\ [1] $end
$var wire 1 H" \contm0|ALT_INV_q\ [0] $end
$var wire 1 I" \contm1|ALT_INV_q\ [3] $end
$var wire 1 J" \contm1|ALT_INV_q\ [2] $end
$var wire 1 K" \contm1|ALT_INV_q\ [1] $end
$var wire 1 L" \contm1|ALT_INV_q\ [0] $end
$var wire 1 M" \conth0|ALT_INV_q\ [3] $end
$var wire 1 N" \conth0|ALT_INV_q\ [2] $end
$var wire 1 O" \conth0|ALT_INV_q\ [1] $end
$var wire 1 P" \conth0|ALT_INV_q\ [0] $end
$var wire 1 Q" \control|ALT_INV_process_0~0_combout\ $end
$var wire 1 R" \conth1|ALT_INV_q\ [3] $end
$var wire 1 S" \conth1|ALT_INV_q\ [2] $end
$var wire 1 T" \conth1|ALT_INV_q\ [1] $end
$var wire 1 U" \conth1|ALT_INV_q\ [0] $end
$var wire 1 V" \ALT_INV_teclado[1]~input_o\ $end
$var wire 1 W" \ALT_INV_teclado[5]~input_o\ $end
$var wire 1 X" \ALT_INV_teclado[4]~input_o\ $end
$var wire 1 Y" \ALT_INV_teclado[7]~input_o\ $end
$var wire 1 Z" \ALT_INV_teclado[3]~input_o\ $end
$var wire 1 [" \ALT_INV_teclado[6]~input_o\ $end
$var wire 1 \" \ALT_INV_teclado[2]~input_o\ $end
$var wire 1 ]" \ALT_INV_selecao[1]~input_o\ $end
$var wire 1 ^" \ALT_INV_selecao[0]~input_o\ $end
$var wire 1 _" \ALT_INV_teclado[9]~input_o\ $end
$var wire 1 `" \ALT_INV_teclado[8]~input_o\ $end
$var wire 1 a" \ALT_INV_load~input_o\ $end
$var wire 1 b" \conth0|ALT_INV_q[3]~7_combout\ $end
$var wire 1 c" \control|ALT_INV_cln[0]~2_combout\ $end
$var wire 1 d" \demux|ALT_INV_s4[3]~0_combout\ $end
$var wire 1 e" \contm0|ALT_INV_Add0~0_combout\ $end
$var wire 1 f" \contm1|ALT_INV_q[2]~6_combout\ $end
$var wire 1 g" \contm1|ALT_INV_q[1]~4_combout\ $end
$upscope $end
$upscope $end
$enddefinitions $end
#0
$dumpvars
0!
00
0K
1L
xM
1N
1O
1P
1Q
1R
1S
0`
0a
0~
x!!
0"!
0#!
0$!
0%!
0&!
0'!
0(!
1)!
0*!
0+!
0,!
0-!
0.!
0/!
00!
11!
02!
03!
04!
05!
06!
17!
08!
09!
0:!
0;!
0<!
0=!
0>!
0?!
0@!
0A!
0B!
0C!
0D!
0E!
0F!
0G!
0H!
0I!
0J!
0K!
0L!
0M!
0N!
0O!
0P!
0Q!
0R!
0S!
0T!
0U!
0V!
0W!
0X!
0Y!
1Z!
1[!
1\!
1]!
1^!
0_!
1`!
1a!
1b!
1c!
1d!
1e!
0f!
1g!
1h!
1i!
1j!
1k!
1l!
0m!
1n!
1o!
0p!
1q!
1r!
1s!
0t!
1/"
10"
11"
12"
13"
14"
15"
16"
17"
18"
19"
0="
1>"
1?"
1@"
1A"
1B"
1C"
1D"
1Q"
1V"
1W"
1X"
1Y"
1Z"
1["
1\"
1]"
1^"
1_"
1`"
1a"
1b"
1c"
1d"
1e"
1f"
1g"
01
12
13
14
15
16
17
08
19
1:
1;
1<
1=
1>
0?
0@
0A
0B
0C
0D
0E
0F
0G
0H
0I
0J
0T
0U
0V
0W
0X
0Y
0Z
0[
0\
0]
0^
0_
0b
1c
1d
1e
1f
1g
1h
0i
1j
1k
1l
1m
1n
1o
0p
1q
1r
1s
1t
1u
1v
0w
1x
1y
1z
1{
1|
1}
xu!
1v!
1w!
1x!
0y!
0z!
0{!
0|!
0}!
x~!
x!"
x""
0#"
0$"
0%"
0&"
0'"
0("
0)"
0*"
0+"
0,"
0-"
0."
0:"
0;"
0<"
1E"
1F"
1G"
1H"
1I"
1J"
1K"
1L"
1M"
1N"
1O"
1P"
1R"
1S"
1T"
1U"
0"
1#
1$
1%
1&
1'
1(
0)
1*
1+
1,
1-
1.
1/
$end
#5000
1!
1`
1"!
1#!
1*"
0H"
07!
1A!
0n!
0q!
0r!
0s!
0x
0y
0z
0}
07
04
03
02
#10000
0!
0`
0"!
0#!
#15000
1!
1`
1"!
1#!
0*"
1)"
0G"
1H"
17!
1n!
1p!
1q!
1r!
1t!
0D"
1w
1y
1z
1}
0{
17
14
13
11
05
#20000
0!
0`
0"!
0#!
#25000
1!
1`
1"!
1#!
1*"
0H"
07!
0A!
1B!
0p!
0r!
1D"
0y
1{
03
15
#30000
0!
0`
0"!
0#!
#35000
1!
1`
1"!
1#!
0*"
0)"
1("
0F"
1G"
1H"
17!
0n!
0q!
1s!
1x
0z
0}
07
04
12
#40000
0!
0`
0"!
0#!
#45000
1!
1`
1"!
1#!
1*"
0H"
07!
1A!
1n!
0o!
1q!
1z
0|
1}
17
06
14
#50000
0!
0`
0"!
0#!
#55000
1!
1`
1"!
1#!
0*"
1)"
0G"
1H"
17!
1r!
1y
13
#60000
0!
0`
0"!
0#!
#65000
1!
1`
1"!
1#!
1*"
0H"
07!
0A!
0B!
1C!
1o!
0q!
0r!
0s!
0t!
0e"
1D!
0w
0x
0y
0z
1|
16
04
03
02
01
#70000
0!
0`
0"!
0#!
#75000
1!
1`
1"!
1#!
0*"
0)"
0("
1'"
0E"
1F"
1G"
1H"
17!
1q!
1r!
1s!
1t!
1w
1x
1y
1z
14
13
12
11
#80000
0!
0`
0"!
0#!
#85000
1!
1`
1"!
1#!
1*"
0H"
07!
1A!
1H!
0q!
0r!
0A"
0y
0z
04
03
#90000
0!
0`
0"!
0#!
#95000
1!
1`
1"!
1#!
0*"
1)"
0G"
1H"
17!
1E!
0H!
1p!
1q!
1r!
0D"
1A"
03"
19!
1@!
0c"
1y
1z
0{
0)"
0'"
14
13
1E"
1G"
05
0A!
0p!
0C!
0E!
0t!
13"
1e"
1D"
0D!
09!
0@!
1c"
0w
1{
01
15
#100000
0!
0`
0"!
0#!
#105000
1!
1`
1"!
1#!
1*"
0H"
07!
1A!
0n!
0q!
0r!
0s!
0x
0y
0z
0}
07
04
03
02
#110000
0!
0`
0"!
0#!
#115000
1!
1`
1"!
1#!
0*"
1)"
0G"
1H"
17!
1n!
1p!
1q!
1r!
1t!
0D"
1w
1y
1z
1}
0{
17
14
13
11
05
#120000
0!
0`
0"!
0#!
#125000
1!
1`
1"!
1#!
1*"
0H"
07!
0A!
1B!
0p!
0r!
1D"
0y
1{
03
15
#130000
0!
0`
0"!
0#!
#135000
1!
1`
1"!
1#!
0*"
0)"
1("
0F"
1G"
1H"
17!
0n!
0q!
1s!
1x
0z
0}
07
04
12
#140000
0!
0`
0"!
0#!
#145000
1!
1`
1"!
1#!
1*"
0H"
07!
1A!
1n!
0o!
1q!
1z
0|
1}
17
06
14
#150000
0!
0`
0"!
0#!
#155000
1!
1`
1"!
1#!
0*"
1)"
0G"
1H"
17!
1r!
1y
13
#160000
0!
0`
0"!
0#!
#165000
1!
1`
1"!
1#!
1*"
0H"
07!
0A!
0B!
1C!
1o!
0q!
0r!
0s!
0t!
0e"
1D!
0w
0x
0y
0z
1|
16
04
03
02
01
#170000
0!
0`
0"!
0#!
#175000
1!
1`
1"!
1#!
0*"
0)"
0("
1'"
0E"
1F"
1G"
1H"
17!
1q!
1r!
1s!
1t!
1w
1x
1y
1z
14
13
12
11
#180000
0!
0`
0"!
0#!
#185000
1!
1`
1"!
1#!
1*"
0H"
07!
1A!
1H!
0q!
0r!
0A"
0y
0z
04
03
#190000
0!
0`
0"!
0#!
#195000
1!
1`
1"!
1#!
0*"
1)"
0G"
1H"
17!
1E!
0H!
1p!
1q!
1r!
0D"
1A"
03"
19!
1@!
0c"
1y
1z
0{
0)"
0'"
14
13
1E"
1G"
05
0A!
0p!
0C!
0E!
0t!
13"
1e"
1D"
0D!
09!
0@!
1c"
0w
1{
01
15
#200000
0!
0`
0"!
0#!
#205000
1!
1`
1"!
1#!
1*"
0H"
07!
1A!
0n!
0q!
0r!
0s!
0x
0y
0z
0}
07
04
03
02
#210000
0!
0`
0"!
0#!
#215000
1!
1`
1"!
1#!
0*"
1)"
0G"
1H"
17!
1n!
1p!
1q!
1r!
1t!
0D"
1w
1y
1z
1}
0{
17
14
13
11
05
#220000
0!
0`
0"!
0#!
#225000
1!
1`
1"!
1#!
1*"
0H"
07!
0A!
1B!
0p!
0r!
1D"
0y
1{
03
15
#230000
0!
0`
0"!
0#!
#235000
1!
1`
1"!
1#!
0*"
0)"
1("
0F"
1G"
1H"
17!
0n!
0q!
1s!
1x
0z
0}
07
04
12
#240000
0!
0`
0"!
0#!
#245000
1!
1`
1"!
1#!
1*"
0H"
07!
1A!
1n!
0o!
1q!
1z
0|
1}
17
06
14
#250000
0!
0`
0"!
0#!
#255000
1!
1`
1"!
1#!
0*"
1)"
0G"
1H"
17!
1r!
1y
13
#260000
0!
0`
0"!
0#!
#265000
1!
1`
1"!
1#!
1*"
0H"
07!
0A!
0B!
1C!
1o!
0q!
0r!
0s!
0t!
0e"
1D!
0w
0x
0y
0z
1|
16
04
03
02
01
#270000
0!
0`
0"!
0#!
#275000
1!
1`
1"!
1#!
0*"
0)"
0("
1'"
0E"
1F"
1G"
1H"
17!
1q!
1r!
1s!
1t!
1w
1x
1y
1z
14
13
12
11
#280000
0!
0`
0"!
0#!
#285000
1!
1`
1"!
1#!
1*"
0H"
07!
1A!
1H!
0q!
0r!
0A"
0y
0z
04
03
#290000
0!
0`
0"!
0#!
#295000
1!
1`
1"!
1#!
0*"
1)"
0G"
1H"
17!
1E!
0H!
1p!
1q!
1r!
0D"
1A"
03"
19!
1@!
0c"
1y
1z
0{
0)"
0'"
14
13
1E"
1G"
05
0A!
0p!
0C!
0E!
0t!
13"
1e"
1D"
0D!
09!
0@!
1c"
0w
1{
01
15
#300000
0!
0`
0"!
0#!
#305000
1!
1`
1"!
1#!
1*"
0H"
07!
1A!
0n!
0q!
0r!
0s!
0x
0y
0z
0}
07
04
03
02
#310000
0!
0`
0"!
0#!
#315000
1!
1`
1"!
1#!
0*"
1)"
0G"
1H"
17!
1n!
1p!
1q!
1r!
1t!
0D"
1w
1y
1z
1}
0{
17
14
13
11
05
#320000
0!
0`
0"!
0#!
#325000
1!
1`
1"!
1#!
1*"
0H"
07!
0A!
1B!
0p!
0r!
1D"
0y
1{
03
15
#330000
0!
0`
0"!
0#!
#335000
1!
1`
1"!
1#!
0*"
0)"
1("
0F"
1G"
1H"
17!
0n!
0q!
1s!
1x
0z
0}
07
04
12
#340000
0!
0`
0"!
0#!
#345000
1!
1`
1"!
1#!
1*"
0H"
07!
1A!
1n!
0o!
1q!
1z
0|
1}
17
06
14
#350000
0!
0`
0"!
0#!
#355000
1!
1`
1"!
1#!
0*"
1)"
0G"
1H"
17!
1r!
1y
13
#360000
0!
0`
0"!
0#!
#365000
1!
1`
1"!
1#!
1*"
0H"
07!
0A!
0B!
1C!
1o!
0q!
0r!
0s!
0t!
0e"
1D!
0w
0x
0y
0z
1|
16
04
03
02
01
#370000
0!
0`
0"!
0#!
#375000
1!
1`
1"!
1#!
0*"
0)"
0("
1'"
0E"
1F"
1G"
1H"
17!
1q!
1r!
1s!
1t!
1w
1x
1y
1z
14
13
12
11
#380000
0!
0`
0"!
0#!
#385000
1!
1`
1"!
1#!
1*"
0H"
07!
1A!
1H!
0q!
0r!
0A"
0y
0z
04
03
#390000
0!
0`
0"!
0#!
#395000
1!
1`
1"!
1#!
0*"
1)"
0G"
1H"
17!
1E!
0H!
1p!
1q!
1r!
0D"
1A"
03"
19!
1@!
0c"
1y
1z
0{
0)"
0'"
14
13
1E"
1G"
05
0A!
0p!
0C!
0E!
0t!
13"
1e"
1D"
0D!
09!
0@!
1c"
0w
1{
01
15
#400000
0!
0`
0"!
0#!
#405000
1!
1`
1"!
1#!
1*"
0H"
07!
1A!
0n!
0q!
0r!
0s!
0x
0y
0z
0}
07
04
03
02
#410000
0!
0`
0"!
0#!
#415000
1!
1`
1"!
1#!
0*"
1)"
0G"
1H"
17!
1n!
1p!
1q!
1r!
1t!
0D"
1w
1y
1z
1}
0{
17
14
13
11
05
#420000
0!
0`
0"!
0#!
#425000
1!
1`
1"!
1#!
1*"
0H"
07!
0A!
1B!
0p!
0r!
1D"
0y
1{
03
15
#430000
0!
0`
0"!
0#!
#435000
1!
1`
1"!
1#!
0*"
0)"
1("
0F"
1G"
1H"
17!
0n!
0q!
1s!
1x
0z
0}
07
04
12
#440000
0!
0`
0"!
0#!
#445000
1!
1`
1"!
1#!
1*"
0H"
07!
1A!
1n!
0o!
1q!
1z
0|
1}
17
06
14
#450000
0!
0`
0"!
0#!
#455000
1!
1`
1"!
1#!
0*"
1)"
0G"
1H"
17!
1r!
1y
13
#460000
0!
0`
0"!
0#!
#465000
1!
1`
1"!
1#!
1*"
0H"
07!
0A!
0B!
1C!
1o!
0q!
0r!
0s!
0t!
0e"
1D!
0w
0x
0y
0z
1|
16
04
03
02
01
#470000
0!
0`
0"!
0#!
#475000
1!
1`
1"!
1#!
0*"
0)"
0("
1'"
0E"
1F"
1G"
1H"
17!
1q!
1r!
1s!
1t!
1w
1x
1y
1z
14
13
12
11
#480000
0!
0`
0"!
0#!
#485000
1!
1`
1"!
1#!
1*"
0H"
07!
1A!
1H!
0q!
0r!
0A"
0y
0z
04
03
#490000
0!
0`
0"!
0#!
#495000
1!
1`
1"!
1#!
0*"
1)"
0G"
1H"
17!
1E!
0H!
1p!
1q!
1r!
0D"
1A"
03"
19!
1@!
0c"
1y
1z
0{
0)"
0'"
14
13
1E"
1G"
05
0A!
0p!
0C!
0E!
0t!
13"
1e"
1D"
0D!
09!
0@!
1c"
0w
1{
01
15
#500000
0!
0`
0"!
0#!
#505000
1!
1`
1"!
1#!
1*"
0H"
07!
1A!
0n!
0q!
0r!
0s!
0x
0y
0z
0}
07
04
03
02
#510000
0!
0`
0"!
0#!
#515000
1!
1`
1"!
1#!
0*"
1)"
0G"
1H"
17!
1n!
1p!
1q!
1r!
1t!
0D"
1w
1y
1z
1}
0{
17
14
13
11
05
#520000
0!
0`
0"!
0#!
#525000
1!
1`
1"!
1#!
1*"
0H"
07!
0A!
1B!
0p!
0r!
1D"
0y
1{
03
15
#530000
0!
0`
0"!
0#!
#535000
1!
1`
1"!
1#!
0*"
0)"
1("
0F"
1G"
1H"
17!
0n!
0q!
1s!
1x
0z
0}
07
04
12
#540000
0!
0`
0"!
0#!
#545000
1!
1`
1"!
1#!
1*"
0H"
07!
1A!
1n!
0o!
1q!
1z
0|
1}
17
06
14
#550000
0!
0`
0"!
0#!
#555000
1!
1`
1"!
1#!
0*"
1)"
0G"
1H"
17!
1r!
1y
13
#560000
0!
0`
0"!
0#!
#565000
1!
1`
1"!
1#!
1*"
0H"
07!
0A!
0B!
1C!
1o!
0q!
0r!
0s!
0t!
0e"
1D!
0w
0x
0y
0z
1|
16
04
03
02
01
#570000
0!
0`
0"!
0#!
#575000
1!
1`
1"!
1#!
0*"
0)"
0("
1'"
0E"
1F"
1G"
1H"
17!
1q!
1r!
1s!
1t!
1w
1x
1y
1z
14
13
12
11
#580000
0!
0`
0"!
0#!
#585000
1!
1`
1"!
1#!
1*"
0H"
07!
1A!
1H!
0q!
0r!
0A"
0y
0z
04
03
#590000
0!
0`
0"!
0#!
#595000
1!
1`
1"!
1#!
0*"
1)"
0G"
1H"
17!
1E!
0H!
1p!
1q!
1r!
0D"
1A"
03"
19!
1@!
0c"
1y
1z
0{
0)"
0'"
14
13
1E"
1G"
05
0A!
0p!
0C!
0E!
0t!
13"
1e"
1D"
0D!
09!
0@!
1c"
0w
1{
01
15
#600000
0!
0`
0"!
0#!
#605000
1!
1`
1"!
1#!
1*"
0H"
07!
1A!
0n!
0q!
0r!
0s!
0x
0y
0z
0}
07
04
03
02
#610000
0!
0`
0"!
0#!
#615000
1!
1`
1"!
1#!
0*"
1)"
0G"
1H"
17!
1n!
1p!
1q!
1r!
1t!
0D"
1w
1y
1z
1}
0{
17
14
13
11
05
#620000
0!
0`
0"!
0#!
#625000
1!
1`
1"!
1#!
1*"
0H"
07!
0A!
1B!
0p!
0r!
1D"
0y
1{
03
15
#630000
0!
0`
0"!
0#!
#635000
1!
1`
1"!
1#!
0*"
0)"
1("
0F"
1G"
1H"
17!
0n!
0q!
1s!
1x
0z
0}
07
04
12
#640000
0!
0`
0"!
0#!
#645000
1!
1`
1"!
1#!
1*"
0H"
07!
1A!
1n!
0o!
1q!
1z
0|
1}
17
06
14
#650000
0!
0`
0"!
0#!
#655000
1!
1`
1"!
1#!
0*"
1)"
0G"
1H"
17!
1r!
1y
13
#660000
0!
0`
0"!
0#!
#665000
1!
1`
1"!
1#!
1*"
0H"
07!
0A!
0B!
1C!
1o!
0q!
0r!
0s!
0t!
0e"
1D!
0w
0x
0y
0z
1|
16
04
03
02
01
#670000
0!
0`
0"!
0#!
#675000
1!
1`
1"!
1#!
0*"
0)"
0("
1'"
0E"
1F"
1G"
1H"
17!
1q!
1r!
1s!
1t!
1w
1x
1y
1z
14
13
12
11
#680000
0!
0`
0"!
0#!
#685000
1!
1`
1"!
1#!
1*"
0H"
07!
1A!
1H!
0q!
0r!
0A"
0y
0z
04
03
#690000
0!
0`
0"!
0#!
#695000
1!
1`
1"!
1#!
0*"
1)"
0G"
1H"
17!
1E!
0H!
1p!
1q!
1r!
0D"
1A"
03"
19!
1@!
0c"
1y
1z
0{
0)"
0'"
14
13
1E"
1G"
05
0A!
0p!
0C!
0E!
0t!
13"
1e"
1D"
0D!
09!
0@!
1c"
0w
1{
01
15
#700000
0!
0`
0"!
0#!
#705000
1!
1`
1"!
1#!
1*"
0H"
07!
1A!
0n!
0q!
0r!
0s!
0x
0y
0z
0}
07
04
03
02
#710000
0!
0`
0"!
0#!
#715000
1!
1`
1"!
1#!
0*"
1)"
0G"
1H"
17!
1n!
1p!
1q!
1r!
1t!
0D"
1w
1y
1z
1}
0{
17
14
13
11
05
#720000
0!
0`
0"!
0#!
#725000
1!
1`
1"!
1#!
1*"
0H"
07!
0A!
1B!
0p!
0r!
1D"
0y
1{
03
15
#730000
0!
0`
0"!
0#!
#735000
1!
1`
1"!
1#!
0*"
0)"
1("
0F"
1G"
1H"
17!
0n!
0q!
1s!
1x
0z
0}
07
04
12
#740000
0!
0`
0"!
0#!
#745000
1!
1`
1"!
1#!
1*"
0H"
07!
1A!
1n!
0o!
1q!
1z
0|
1}
17
06
14
#750000
0!
0`
0"!
0#!
#755000
1!
1`
1"!
1#!
0*"
1)"
0G"
1H"
17!
1r!
1y
13
#760000
0!
0`
0"!
0#!
#765000
1!
1`
1"!
1#!
1*"
0H"
07!
0A!
0B!
1C!
1o!
0q!
0r!
0s!
0t!
0e"
1D!
0w
0x
0y
0z
1|
16
04
03
02
01
#770000
0!
0`
0"!
0#!
#775000
1!
1`
1"!
1#!
0*"
0)"
0("
1'"
0E"
1F"
1G"
1H"
17!
1q!
1r!
1s!
1t!
1w
1x
1y
1z
14
13
12
11
#780000
0!
0`
0"!
0#!
